3 Results – Exploratory Data Analysis and Visualization of JWST Photometric Data in the Cosmic Deep Space
…
tile_stats <- gal_tiles %>%
group_by(ra_tile, dec_tile, ra_ctr, dec_ctr) %>%
summarise(
n_obj = n(),
med_mag = median(m_f356w, na.rm = TRUE),
med_color = median(C2_F356_F444, na.rm = TRUE),
frac_safe = mean(rowSums(across(all_of(safe_mag_cols), ~ is.finite(.))) > 0),
.groups = "drop"
)

tile_stats

# A tibble: 75 × 8
   ra_tile dec_tile ra_ctr dec_ctr n_obj med_mag med_color frac_safe
     <dbl>    <dbl>  <dbl>   <dbl> <int>   <dbl>     <dbl>     <dbl>
 1       0        6   3.45   -30.4     2    21.9   -0.472          1
 2       0        7   3.45   -30.3   966    23.7   -0.0615         1
 3       0        8   3.45   -30.3   649    23.6   -0.0255         1
 4       1        6   3.47   -30.4   497    23.8   -0.0208         1
 5       1        7   3.47   -30.3  1588    24.0   -0.0394         1
 6       1        8   3.47   -30.3  1596    23.9   -0.0125         1
 7       1        9   3.47   -30.3   452    23.6   -0.0903         1
 8       2        4   3.49   -30.4    39    23.3   -0.0580         1
 9       2        5   3.49   -30.4   742    23.6   -0.0644         1
10       2        6   3.49   -30.4   898    23.7   -0.134          1
# ℹ 65 more rows
…
